<?xml version="1.0" encoding="UTF-8"?>
<svg width="498px" height="485px" viewBox="0 0 498 485" version="1.1" xmlns="http://www.w3.org/2000/svg" xmlns:xlink="http://www.w3.org/1999/xlink">
    <title>Logo</title>
    <defs>
        <polygon id="path-1" points="0.000494211994 0.525887295 497.523708 0.525887295 497.523708 484.077947 0.000494211994 484.077947"></polygon>
    </defs>
    <g id="Homepage---Rnd-4" stroke="none" stroke-width="1" fill="none" fill-rule="evenodd" opacity="0.501743862">
        <g id="Homepage---Direction-02" transform="translate(-933.000000, -155.000000)">
            <g id="Hero" transform="translate(127.000000, 148.000000)">
                <g id="Logo" transform="translate(806.000000, 7.000000)">
                    <path d="M220.187229,246.851474 C216.525114,248.821426 212.245576,248.196258 210.628967,245.443723 C209.002931,242.691187 210.638393,238.877217 214.281656,236.893772 C217.943771,234.932816 230,235.00028 230,235.00028 C230,235.00028 223.84463,244.881522 220.187229,246.851474" id="Fill-1" fill-opacity="0.502786276" fill="#BEBAB9"></path>
                    <g id="Group-5">
                        <mask id="mask-2" fill="white">
                            <use xlink:href="#path-1"></use>
                        </mask>
                        <g id="Clip-4"></g>
                        <path d="M467.406429,349.424058 C467.347124,348.670152 467.263108,347.926038 467.193918,347.19661 C467.159323,346.638524 467.095076,346.075542 467.050597,345.532143 C466.94187,344.543254 466.828201,343.544574 466.739243,342.540998 C466.674996,342.139568 466.645343,341.70387 466.59098,341.273066 C466.42789,339.877852 466.254915,338.463055 466.067115,337.058049 C466.042404,336.700678 465.973215,336.357994 465.933678,336.020205 C465.790356,334.967675 465.651977,333.910249 465.493829,332.852823 C465.404871,332.319215 465.335681,331.775815 465.251665,331.222625 C465.128112,330.361018 464.984791,329.52389 464.86618,328.681865 C464.772279,328.089511 464.673437,327.497157 464.574595,326.899907 C464.451042,326.111733 464.30772,325.313768 464.184167,324.525594 C464.070498,323.918553 463.95683,323.311512 463.838219,322.68489 C463.714666,321.935879 463.576286,321.181974 463.442849,320.428068 C463.324238,319.79655 463.205627,319.179718 463.087016,318.543305 C462.948637,317.813877 462.805316,317.084449 462.661994,316.35502 C462.528557,315.728398 462.400062,315.096879 462.271567,314.475152 C462.138129,313.755515 461.979982,313.021192 461.826776,312.321136 C461.688397,311.689618 461.569786,311.062995 461.426464,310.446164 C461.25349,309.731422 461.115111,309.031367 460.956963,308.316625 C460.818583,307.694898 460.675262,307.087857 460.53194,306.46613 C460.368851,305.766075 460.200818,305.051333 460.047613,304.351278 C459.889465,303.749133 459.756028,303.137197 459.607764,302.530156 C459.439732,301.830101 459.2717,301.139836 459.098726,300.425095 C458.940578,299.832741 458.787372,299.240386 458.639109,298.648032 C458.45625,297.928395 458.273392,297.22834 458.090533,296.523389 C457.94227,295.960408 457.798948,295.38274 457.645742,294.809967 C457.453,294.085435 457.265199,293.380484 457.067514,292.660847 C456.924193,292.112552 456.761103,291.574048 456.627666,291.025753 C456.400328,290.271848 456.197701,289.522838 455.98519,288.74935 C455.841869,288.264697 455.703489,287.775148 455.574994,287.300285 C455.293293,286.375038 455.026419,285.454685 454.759544,284.529438 C454.65576,284.230813 454.571744,283.922397 454.482786,283.628667 C454.122011,282.414586 453.761236,281.215191 453.380693,280.015796 C453.267024,279.60947 453.128645,279.212935 453.014976,278.806609 C452.76787,278.023331 452.525706,277.235157 452.263774,276.451879 C452.11551,275.977016 451.962304,275.502153 451.809099,275.032186 C451.566935,274.332131 451.354424,273.641867 451.132028,272.946708 C450.963996,272.442472 450.78608,271.957818 450.627932,271.458478 C450.405537,270.797587 450.193026,270.166069 449.975572,269.490491 C449.812482,268.986256 449.639508,268.501602 449.45665,267.997367 C449.244139,267.356058 449.016801,266.724539 448.794406,266.107708 C448.616489,265.613263 448.453399,265.113923 448.265599,264.624374 C448.053088,264.007542 447.835634,263.395606 447.618181,262.793461 C447.440265,262.299016 447.267291,261.809467 447.089374,261.334604 C446.871921,260.717773 446.65941,260.125418 446.446899,259.528168 C446.259098,259.04841 446.07624,258.583339 445.908208,258.108476 C445.685812,257.511226 445.463417,256.928663 445.236079,256.331413 C445.068047,255.876133 444.890131,255.415957 444.717157,254.960676 C444.484877,254.378113 444.272366,253.795549 444.040086,253.222777 C443.872054,252.777287 443.704022,252.326902 443.531048,251.876517 C443.308652,251.303745 443.076373,250.726077 442.849035,250.153304 C442.666177,249.737188 442.512971,249.306385 442.339997,248.885372 C442.097833,248.302809 441.875438,247.730037 441.643158,247.152369 C441.48501,246.750939 441.32192,246.359299 441.163772,245.957869 C440.916666,245.375306 440.689329,244.787847 440.437281,244.195493 C440.284075,243.847913 440.135811,243.480751 439.987548,243.128276 C439.725616,242.491862 439.463683,241.865239 439.196809,241.233721 C439.078198,240.944887 438.949703,240.660949 438.836034,240.367219 C438.450549,239.47624 438.070005,238.599947 437.694404,237.733445 L437.694404,237.723654 C437.68452,237.704072 437.68452,237.704072 437.68452,237.699177 C437.630157,237.586581 437.585678,237.483775 437.541199,237.366284 C437.244671,236.690706 436.953086,236.03471 436.666443,235.373819 C436.54289,235.094776 436.414395,234.815733 436.295784,234.541586 C436.073389,234.047141 435.870762,233.552697 435.638482,233.063148 C435.505045,232.759627 435.366666,232.465898 435.223344,232.162377 C435.030602,231.702201 434.823033,231.251816 434.615464,230.801431 C434.482026,230.497911 434.343647,230.184599 434.195383,229.885974 C434.007583,229.44538 433.795072,229.009682 433.602329,228.569087 C433.459007,228.270463 433.320628,227.966942 433.187191,227.678108 C432.979622,227.237514 432.781937,226.816502 432.57931,226.375908 C432.450815,226.096865 432.312436,225.79824 432.178998,225.514302 C431.971429,225.073707 431.768802,224.642904 431.566176,224.212101 C431.422854,223.942849 431.31907,223.673597 431.185632,223.423927 C430.948411,222.919692 430.711189,222.420352 430.459141,221.911221 C430.370182,221.734983 430.291109,221.55385 430.197208,221.362926 C429.890797,220.711825 429.554733,220.05583 429.253263,219.394939 C429.139595,219.179537 429.025926,218.95924 428.927083,218.729152 C428.70963,218.30814 428.502061,217.877337 428.294492,217.456324 C428.161055,217.187072 428.022676,216.903134 427.874412,216.633882 C427.696496,216.281407 427.528464,215.924036 427.360431,215.586247 C427.21711,215.282727 427.063904,214.998788 426.935409,214.700163 C426.757493,214.386852 426.589461,214.06375 426.426371,213.740647 C426.283049,213.451813 426.14467,213.162979 425.98158,212.859459 C425.823432,212.555939 425.680111,212.252418 425.521963,211.948898 C425.373699,211.669855 425.225436,211.381021 425.077172,211.082396 C424.928908,210.803353 424.775703,210.514519 424.637323,210.230581 C424.479176,209.941747 424.330912,209.652913 424.182648,209.364079 C424.044269,209.099722 423.915774,208.840261 423.777395,208.571009 C423.60442,208.272384 423.451215,207.978655 423.307893,207.704508 C423.288125,207.689821 423.288125,207.684926 423.288125,207.670239 C423.643957,207.802417 424.0245,207.915014 424.385275,208.032505 C424.558249,208.086356 424.731224,208.149997 424.90914,208.198952 C425.546673,208.399667 426.203975,208.610173 426.866219,208.801097 L427.009541,208.845157 C427.009541,208.845157 427.044136,208.850052 427.063904,208.850052 C427.820049,209.075245 428.591019,209.290646 429.426238,209.506048 L429.614038,209.559898 C430.360298,209.760614 431.126327,209.941747 431.897298,210.127775 L431.907182,210.127775 L432.248188,210.210999 C432.979622,210.387236 433.711056,210.543892 434.462258,210.700548 L434.482026,210.715234 L434.946586,210.813144 C435.682961,210.960009 436.404511,211.116664 437.150771,211.239052 L437.709231,211.37123 C438.396185,211.493617 439.08314,211.611109 439.819516,211.733496 C439.819516,211.733496 439.844226,211.738392 439.863995,211.738392 L439.89859,211.743287 L440.501528,211.860779 C441.203309,211.96848 441.900148,212.085971 442.616756,212.188777 L443.333363,212.296478 C443.694138,212.345432 444.030202,212.394387 444.37615,212.448238 C444.727041,212.502088 445.068047,212.555939 445.413996,212.599998 L445.759944,212.644057 L446.209677,212.697908 C446.881805,212.795818 447.563818,212.86925 448.24583,212.962264 L449.105759,213.050383 C449.772945,213.133606 450.440132,213.211934 451.132028,213.27068 L451.586703,213.329426 L452.051263,213.373485 C452.085857,213.373485 452.140221,213.383276 452.169874,213.383276 C460.047613,224.667382 481.254249,258.044835 483.58693,292.724489 C480.95278,312.291763 475.49668,331.413549 467.406429,349.424058 L467.406429,349.424058 Z M418.548632,416.962243 C418.523921,416.854542 418.509095,416.732155 418.479442,416.634245 C418.434963,416.43353 418.3806,416.223024 418.355889,416.012518 C418.266931,415.660042 418.187857,415.33694 418.103841,414.974674 C418.069246,414.778854 418.019825,414.578139 417.98523,414.372528 C417.871561,413.93683 417.767777,413.496236 417.649166,413.016477 C417.639282,412.928359 417.614571,412.830449 417.594802,412.717853 C417.451481,412.179349 417.322986,411.621263 417.184607,411.077863 C417.130243,410.886939 417.090706,410.69112 417.046227,410.505091 C416.942443,410.118347 416.853484,409.741394 416.744758,409.364442 C416.690395,409.139249 416.631089,408.933639 416.566842,408.698655 C416.477883,408.316807 416.383983,407.949645 416.275256,407.567797 C416.215951,407.362186 416.16653,407.156576 416.107224,406.95586 C415.958961,406.40267 415.800813,405.834793 415.637723,405.276707 C415.627839,405.20817 415.593244,405.115156 415.568533,405.027037 C415.415328,404.522802 415.276948,403.994089 415.108916,403.475167 C415.054553,403.274452 415.015016,403.068841 414.940884,402.868126 C414.817331,402.481382 414.693778,402.084848 414.570225,401.688313 C414.51092,401.468016 414.44173,401.247719 414.367598,401.027422 C414.248987,400.621096 414.11555,400.219666 413.982113,399.798654 C413.917865,399.607729 413.868444,399.421701 413.799254,399.235672 C413.606512,398.643318 413.413769,398.070545 413.2062,397.473296 C413.171605,397.360699 413.132068,397.238312 413.102415,397.140402 C412.919557,396.645958 412.761409,396.175991 412.593377,395.706024 C412.519245,395.485727 412.445113,395.294802 412.375924,395.06961 C412.311676,394.91785 412.257313,394.756298 412.20295,394.599643 C404.522895,337.31751 408.837366,297.512278 414.204508,273.431361 C417.738124,257.579763 422.121784,246.506164 425.378641,239.706328 C425.408294,239.769969 425.447831,239.82382 425.4676,239.882566 C425.872853,240.798022 426.273165,241.72327 426.678419,242.648518 C438.816265,270.6752 453.761236,313.745724 455.995074,359.72417 C456.029669,360.434016 456.074148,361.129175 456.138396,361.824335 C456.153222,361.976095 456.163106,362.12296 456.177933,362.27472 C456.24218,362.960089 456.326196,363.630771 456.400328,364.335721 C456.410212,364.428736 456.429981,364.526646 456.454692,364.629451 C456.548592,365.260969 456.63755,365.892487 456.741334,366.51911 C456.761103,366.651288 456.780871,366.76878 456.805582,366.891167 C456.924193,367.581432 457.067514,368.252114 457.205894,368.942378 C457.215778,368.996228 457.225662,369.05987 457.240489,369.108825 C446.773079,386.928409 433.795072,402.970931 418.548632,416.962243 L418.548632,416.962243 Z M277.965088,472.100151 C325.849288,416.0321 336.613225,412.698271 337.72026,412.507346 L343.206013,411.699591 L342.879833,406.216641 C342.879833,406.201955 342.840296,405.658555 342.840296,404.733308 C342.840296,402.388368 343.087402,395.764769 345.439851,389.855913 C352.274803,398.902779 359.020797,409.134354 365.203389,420.594697 L370.056551,429.577921 L375.611494,421.005918 C379.337852,415.258612 391.510293,400.46444 401.789903,401.414165 L401.868977,401.644253 C401.948051,401.86455 402.022183,402.084848 402.091372,402.31004 C402.244578,402.760425 402.392842,403.205915 402.546047,403.666091 C402.615237,403.871701 402.674542,404.10179 402.73879,404.312296 C402.896938,404.772472 403.030375,405.227752 403.173696,405.697719 C403.257713,405.932703 403.32196,406.172582 403.381266,406.40267 C403.489992,406.745354 403.608603,407.102725 403.702503,407.4552 C403.786519,407.70487 403.845825,407.95454 403.915014,408.214001 C404.018799,408.561581 404.122584,408.894475 404.216484,409.242054 C404.280731,409.501515 404.364747,409.780558 404.438879,410.04981 C404.522895,410.382704 404.616796,410.720492 404.705754,411.053386 C404.784828,411.337324 404.854017,411.596785 404.947918,411.89541 C405.017107,412.233199 405.11595,412.570988 405.195024,412.903881 C405.27904,413.18782 405.333403,413.496236 405.402593,413.765487 C405.491551,414.113067 405.570625,414.445961 405.664525,414.788645 C405.72383,415.067688 405.802904,415.376104 405.881978,415.645356 C405.95611,415.997831 406.05001,416.345411 406.1192,416.692991 C406.18839,416.996511 406.252637,417.28045 406.326769,417.58397 C406.410785,417.941341 406.484917,418.27913 406.563991,418.641396 C406.628238,418.925334 406.687544,419.23375 406.756733,419.522584 C406.825923,419.870164 406.909939,420.247117 406.984071,420.609383 C407.048319,420.908008 407.107624,421.201737 407.171872,421.495467 C407.246003,421.867524 407.325077,422.239581 407.404151,422.606743 C407.468399,422.915159 407.512878,423.189306 407.572183,423.492827 C407.646315,423.86978 407.720447,424.256523 407.789637,424.643267 C407.848942,424.936996 407.91319,425.220935 407.952726,425.51956 C407.992263,425.666425 408.00709,425.827976 408.036743,425.979736 C371.331618,455.475065 325.320481,471.791735 277.965088,472.100151 L277.965088,472.100151 Z M262.585211,471.649765 C251.198566,470.89586 239.910764,469.216707 228.870068,466.666156 C241.062278,458.490687 257.074747,449.106032 280.381785,450.93205 C274.989932,457.051413 269.079156,463.919786 262.585211,471.649765 L262.585211,471.649765 Z M239.579642,452.185296 C239.950301,451.720224 240.325902,451.245362 240.681735,450.760708 C240.820114,450.579575 240.983204,450.373964 241.116642,450.187936 C241.610854,449.551522 242.090239,448.949377 242.559741,448.332545 C242.574567,448.303172 242.594336,448.28359 242.609162,448.254217 C243.103374,447.617803 243.577817,446.991181 244.057203,446.374349 C244.205467,446.18832 244.338904,445.9925 244.482225,445.801576 C244.808405,445.390355 245.134585,444.974238 245.436054,444.567913 C245.618913,444.318243 245.806713,444.078364 245.98463,443.838485 C246.261389,443.490905 246.518379,443.148221 246.765485,442.815327 C246.96317,442.560762 247.155912,442.306196 247.348655,442.056526 C247.585877,441.728528 247.808272,441.415217 248.06032,441.101906 C248.253063,440.862027 248.440863,440.607461 248.613838,440.352896 C248.851059,440.059166 249.073455,439.745855 249.29585,439.457021 C249.473766,439.207351 249.651683,438.962576 249.844425,438.712906 C250.056937,438.438759 250.279332,438.145029 250.481959,437.8513 C250.674702,437.621212 250.837792,437.391124 251.010766,437.15614 C251.218335,436.867306 251.425904,436.598054 251.623589,436.314116 C251.806447,436.084028 251.959653,435.85394 252.127685,435.628747 C252.335254,435.364391 252.527997,435.100034 252.710855,434.830782 C252.883829,434.610485 253.041977,434.385293 253.205067,434.174787 C253.392868,433.905535 253.580668,433.655865 253.768469,433.396404 C253.921674,433.181002 254.064996,432.970496 254.213259,432.769781 C254.430713,432.500529 254.623455,432.216591 254.831024,431.917966 C254.944693,431.766206 255.058362,431.599759 255.181915,431.438208 C255.488326,431.017195 255.794738,430.591288 256.081381,430.175171 C256.175281,430.052784 256.249413,429.940188 256.333429,429.8178 C256.536056,429.528966 256.743625,429.235237 256.936368,428.946403 C257.069805,428.799538 257.163705,428.642883 257.272432,428.481331 C257.440464,428.246348 257.608496,428.01626 257.776528,427.776381 C257.865486,427.61483 257.979155,427.453279 258.097766,427.296623 C258.231203,427.081221 258.379467,426.86582 258.537614,426.665105 C258.631515,426.513344 258.740241,426.356689 258.85391,426.200033 C258.977463,425.999318 259.115842,425.803498 259.234453,425.607679 C259.34318,425.451023 259.446965,425.313949 259.540865,425.162189 C259.66936,424.97616 259.778087,424.790132 259.90164,424.608999 C259.99554,424.467029 260.08944,424.32506 260.18334,424.187986 C260.311835,424.001958 260.410678,423.830616 260.514462,423.669064 C260.618247,423.527095 260.682494,423.385126 260.776395,423.27253 C260.880179,423.101188 260.988906,422.934741 261.097633,422.768294 C261.171764,422.641012 261.240954,422.528415 261.32497,422.406028 C261.423812,422.239581 261.517713,422.07803 261.611613,421.92627 C261.675861,421.818569 261.74505,421.710868 261.819182,421.608063 C261.913082,421.441616 262.002041,421.270274 262.100883,421.118514 C262.14042,421.0255 262.194783,420.937381 262.263973,420.859053 C262.3727,420.628965 262.516021,420.389086 262.634632,420.17858 C263.217802,419.121154 263.815799,418.039251 264.438506,416.952452 C264.715264,416.43353 265.001907,415.929294 265.308319,415.405477 C265.323145,415.376104 265.333029,415.33694 265.35774,415.297776 C265.649325,414.79354 265.931026,414.279514 266.217669,413.765487 C266.247322,413.711637 266.281916,413.647996 266.316511,413.579459 C266.59327,413.080119 266.860144,412.575883 267.151729,412.066752 C267.181382,411.978634 267.235746,411.910097 267.275282,411.84156 C267.542157,411.332429 267.833742,410.823298 268.100617,410.304376 C268.130269,410.216257 268.194517,410.118347 268.229112,410.04981 C268.510812,409.521097 268.777687,409.002175 269.044561,408.483253 C269.098925,408.40003 269.143404,408.282538 269.197767,408.209106 C269.464642,407.665707 269.736458,407.141889 269.988506,406.613176 C270.052754,406.50058 270.102175,406.40267 270.146654,406.309656 C270.413529,405.771152 270.675461,405.222857 270.927509,404.674562 C270.986815,404.566861 271.021409,404.468951 271.085657,404.371042 C271.342647,403.803165 271.614464,403.230392 271.866512,402.667411 C271.910991,402.569501 271.960412,402.486278 271.990065,402.378577 C272.256939,401.791118 272.518872,401.193868 272.77092,400.577036 C272.805515,400.5085 272.845052,400.449754 272.859878,400.361635 C273.131695,399.749699 273.398569,399.123076 273.640733,398.486662 C273.670386,398.437707 273.695096,398.374066 273.704981,398.31532 C273.957029,397.693593 274.209077,397.047388 274.441356,396.41587 C274.480893,396.327751 274.505604,396.239632 274.545141,396.1662 C274.787305,395.52489 274.994874,394.863999 275.227153,394.203108 C275.271633,394.090512 275.321054,393.982811 275.340822,393.880006 C275.56816,393.219114 275.780671,392.57291 275.998124,391.902228 C276.037661,391.765154 276.077198,391.637871 276.106851,391.500797 C276.319362,390.844802 276.517047,390.174119 276.714732,389.508333 C276.754269,389.356573 276.80369,389.209708 276.833342,389.062843 C277.021143,388.377475 277.204001,387.692106 277.38686,387.001842 C277.421455,386.845186 277.460992,386.693426 277.500529,386.531875 C277.668561,385.836715 277.841535,385.131764 277.999683,384.407232 C278.034278,384.245681 278.068872,384.089025 278.113352,383.922578 C278.271499,383.202941 278.409879,382.463722 278.558142,381.714712 C278.592737,381.558056 278.617448,381.396505 278.6471,381.259432 C278.780538,380.495735 278.909033,379.717352 279.052354,378.914492 C279.062239,378.787209 279.086949,378.655031 279.106718,378.49348 C279.230271,377.685724 279.348881,376.858386 279.452666,376.031048 C279.467492,375.918452 279.477377,375.796064 279.487261,375.688364 C279.595987,374.826757 279.699772,373.970046 279.78873,373.10844 C279.78873,373.000739 279.798614,372.922411 279.808499,372.824502 C279.887573,371.953104 279.966646,371.067021 280.025952,370.161355 C280.025952,370.048759 280.035836,369.931267 280.04572,369.843148 C280.100084,368.922796 280.139621,367.997548 280.174216,367.067405 C280.174216,366.92054 280.193984,366.76878 280.193984,366.626811 C280.223637,365.696668 280.238463,364.766525 280.248347,363.816799 L280.248347,363.297877 C280.248347,362.37263 280.238463,361.408218 280.223637,360.448702 C280.223637,360.257778 280.223637,360.071749 280.20881,359.885721 C280.174216,358.906623 280.139621,357.927525 280.090199,356.928845 C280.085257,356.728129 280.065489,356.542101 280.055605,356.341386 C279.991357,355.33781 279.946878,354.329339 279.843093,353.281704 C279.833209,353.09078 279.813441,352.885169 279.798614,352.699141 C279.71954,351.64661 279.610814,350.589185 279.487261,349.512177 C279.467492,349.321253 279.452666,349.135224 279.432898,348.949195 C279.309345,347.84771 279.170965,346.731538 279.022702,345.590889 C279.002933,345.429338 278.97328,345.277577 278.94857,345.116026 C278.884322,344.660746 278.829959,344.205465 278.745943,343.759975 C293.399328,367.875161 298.054805,389.356573 299.156898,404.336773 C300.061306,416.580394 298.771413,426.200033 297.590246,431.962025 C294.007209,435.760926 290.088108,440.029793 285.788464,444.822478 C266.247322,442.188704 251.050303,446.765988 239.115083,452.802128 C239.24852,452.596517 239.416552,452.386011 239.579642,452.185296 L239.579642,452.185296 Z M267.883163,316.5949 L260.104266,316.913106 C252.661434,317.427133 245.40146,318.479663 238.428128,320.100071 C237.756,320.256726 237.10364,320.428068 236.45128,320.58962 C236.550123,314.382138 237.256846,304.184831 240.335787,293.801496 C246.562858,272.892857 259.204801,260.99192 277.940377,258.363042 C289.139221,273.47542 301.054672,285.90507 313.47422,295.451277 C332.837446,310.323776 353.475738,318.151665 374.845465,318.768497 C377.410425,331.668114 380.761183,344.538358 385.144843,356.909263 C374.870176,348.670152 361.976185,340.847159 347.678632,334.331261 C331.656279,327.03698 307.410238,318.479663 279.467492,316.859256 C279.358766,316.790719 279.20556,316.839674 279.20556,316.839674 C277.011259,316.7026 274.797189,316.643854 272.573235,316.5949 L267.883163,316.5949 Z M233.901147,291.916733 C228.632847,309.648199 229.818955,326.405462 229.868377,327.110413 L229.962277,327.100622 L229.962277,340.156895 C220.359738,339.897434 204.984803,338.590338 194.853457,332.123395 C193.395532,331.188356 192.066101,330.165199 190.855282,329.02455 C189.812495,327.100622 188.843839,320.193085 188.384222,316.849465 C188.082753,314.700345 187.845531,313.070146 187.613251,311.772842 C187.296956,310.088793 186.965834,308.957935 186.451853,307.978836 C184.816011,304.791872 180.140766,296.449957 175.910311,288.959856 L193.721711,279.026907 C193.721711,279.026907 187.904836,269.784221 178.183686,273.935597 L170.044015,278.488403 C180.318682,265.892306 216.900254,220.897854 223.364547,210.72013 C228.904663,201.986575 233.871494,191.348674 237.246962,183.520785 C242.693178,197.350546 253.140819,221.176897 268.48116,244.778056 C270.166423,247.372666 271.876396,249.90853 273.606138,252.366066 C254.124301,256.292249 240.469224,269.857653 233.901147,291.916733 L233.901147,291.916733 Z M318.520124,167.674083 C315.460952,173.318583 311.596214,181.244382 308.156499,190.648619 C306.782589,194.413251 305.418564,198.594 304.207745,203.063583 C288.640067,198.584209 277.080448,203.822384 269.958854,209.285751 C265.906315,212.360119 262.866911,215.81144 260.815932,218.552914 C251.396251,200.919358 245.011032,185.268475 241.749233,176.588771 C260.815932,176.539816 291.23468,172.261157 318.520124,167.674083 L318.520124,167.674083 Z M303.273684,259.630974 C307.771013,274.444728 316.424665,287.256226 329.130856,297.962663 C305.695323,283.814696 287.256273,261.359082 274.209077,241.287571 C270.675461,235.863368 267.398835,230.404896 264.384142,225.073707 C267.715131,219.781682 280.327421,202.965673 302.596614,209.52563 C299.240914,224.652695 298.054805,242.393952 303.273684,259.630974 L303.273684,259.630974 Z M350.218881,161.975732 C359.114697,160.296579 366.483398,158.837723 371.40575,157.839043 C371.672624,157.785193 371.934556,157.726447 372.191547,157.677492 C370.476631,170.430244 367.348269,198.09466 367.175295,231.320353 C367.066568,254.534768 368.440478,283.183178 373.585224,312.05678 C370.377789,311.919706 367.2346,311.591708 364.135891,311.121741 C335.066342,298.848747 316.755787,280.901879 309.718208,257.736419 C298.366159,220.374037 319.439358,179.266604 327.035397,166.205436 C335.382637,164.741684 343.275203,163.292619 350.218881,161.975732 L350.218881,161.975732 Z M313.395146,339.344243 C310.227247,336.779006 307.192785,334.438962 304.321414,332.343692 C304.356008,332.353483 304.375777,332.363274 304.390603,332.363274 C304.667362,332.412229 304.944121,332.490557 305.210995,332.549303 C305.724976,332.652108 306.234014,332.779391 306.703515,332.891987 C307.004985,332.940942 307.291628,333.01927 307.563444,333.087807 C308.057656,333.205298 308.537042,333.32279 309.041138,333.445177 C309.327781,333.513714 309.609482,333.577356 309.891183,333.655683 C310.37551,333.773175 310.849954,333.900458 311.334282,334.027741 C311.615983,334.086487 311.897683,334.179501 312.199153,334.248038 C312.663712,334.390007 313.14804,334.507499 313.627425,334.639677 C313.8943,334.713109 314.190827,334.791437 314.467586,334.869765 C314.942029,335.006839 315.416473,335.153703 315.900801,335.271195 C316.162733,335.36421 316.439492,335.442537 316.726135,335.530656 C317.20552,335.653043 317.665137,335.804804 318.134639,335.941877 C318.426224,336.029996 318.69804,336.103429 318.964915,336.196443 C319.439358,336.328621 319.903918,336.480381 320.368477,336.637037 C320.645236,336.710469 320.91211,336.813275 321.193811,336.886707 C321.663312,337.038467 322.113045,337.195123 322.572662,337.341988 C322.854363,337.430106 323.116296,337.518225 323.388112,337.616135 C323.852672,337.767895 324.312289,337.919655 324.771906,338.090998 C325.043722,338.16443 325.300713,338.267235 325.577471,338.350459 C326.037089,338.516905 326.491764,338.678456 326.951381,338.844903 C327.203429,338.937917 327.475245,339.030932 327.732236,339.123946 C328.191853,339.280602 328.636644,339.461735 329.101203,339.628182 C329.353251,339.721196 329.620125,339.81421 329.872174,339.91212 C330.326849,340.083462 330.791408,340.2597 331.236199,340.440833 C331.488247,340.519161 331.740295,340.626862 331.982459,340.719876 C332.432192,340.896114 332.901693,341.072351 333.356368,341.25838 C333.598532,341.351394 333.840696,341.444409 334.072976,341.547214 C334.547419,341.728347 334.99221,341.914376 335.451827,342.115091 C335.679165,342.188523 335.911444,342.301119 336.143724,342.389238 C336.603341,342.585058 337.062958,342.771086 337.532459,342.976697 C337.744971,343.05992 337.962424,343.152935 338.179877,343.250844 C338.659263,343.45156 339.108996,343.647379 339.578497,343.85299 C339.786066,343.955795 339.988693,344.034123 340.206146,344.132033 C340.690474,344.342539 341.164918,344.553045 341.639361,344.763551 C341.832104,344.861461 342.01002,344.934893 342.187936,345.023012 C342.701917,345.243309 343.181303,345.478293 343.675515,345.69859 C343.853431,345.776917 343.996752,345.855245 344.174669,345.918887 C344.683707,346.183243 345.207572,346.428018 345.726494,346.672792 C345.859932,346.731538 345.978542,346.790284 346.107038,346.858821 C346.680323,347.132968 347.253609,347.416907 347.821953,347.691054 L348.009754,347.79386 C351.222132,349.370207 354.29613,351.024883 357.25646,352.699141 C357.32565,352.748096 357.404724,352.792155 357.493682,352.836215 C357.992836,353.125049 358.496932,353.413882 358.976318,353.68803 C359.114697,353.771253 359.223424,353.844686 359.371687,353.932804 C359.806594,354.18737 360.251385,354.43704 360.676407,354.701396 C360.834555,354.804202 360.997645,354.887425 361.150851,354.985335 C361.551162,355.230109 361.946532,355.460197 362.341902,355.704972 C362.529702,355.817568 362.702676,355.93506 362.875651,356.037865 C363.241367,356.258162 363.621911,356.493146 363.982685,356.723234 C364.18037,356.850517 364.358287,356.958217 364.541145,357.080605 C364.887093,357.291111 365.242926,357.521199 365.583932,357.741496 C365.776675,357.87857 365.969418,358.005852 366.167102,358.118449 L367.160469,358.769549 C367.348269,358.906623 367.541012,359.038801 367.748581,359.161188 C368.069819,359.381485 368.381172,359.5822 368.697468,359.807393 C368.885268,359.92978 369.09778,360.076645 369.275696,360.208823 C369.591992,360.409538 369.893461,360.62494 370.19493,360.835446 C370.387673,360.962729 370.580416,361.109593 370.787985,361.241772 C371.07957,361.462069 371.36127,361.662784 371.652856,361.863499 C371.85054,362.010363 372.053167,362.147437 372.24591,362.294302 C372.522669,362.490122 372.794485,362.695732 373.08607,362.901343 C373.283755,363.038416 373.471556,363.185281 373.679125,363.332146 C373.941057,363.527966 374.202989,363.723785 374.469864,363.929396 C374.672491,364.071365 374.860291,364.21823 375.053034,364.36999 C375.314966,364.560914 375.567015,364.761629 375.824005,364.96724 C376.011805,365.104313 376.204548,365.256074 376.392349,365.407834 C376.644397,365.593862 376.906329,365.789682 377.143551,365.980606 C377.331351,366.137262 377.504326,366.279231 377.697068,366.440782 C377.939232,366.626811 378.181396,366.827526 378.408733,367.013555 C378.58665,367.155524 378.779392,367.307284 378.957309,367.46394 C379.199473,367.649968 379.431752,367.840893 379.644263,368.036712 C379.827122,368.188472 380.005038,368.335337 380.187897,368.482202 C380.410292,368.682917 380.63763,368.873841 380.845199,369.05987 C381.018173,369.21163 381.191147,369.343808 381.359179,369.510255 C381.576632,369.691388 381.794086,369.877416 382.001655,370.068341 C382.174629,370.215205 382.322892,370.36207 382.505751,370.523621 C382.703436,370.694963 382.915947,370.895678 383.118574,371.081707 C383.281664,371.228572 383.434869,371.36075 383.602902,371.517406 L384.195956,372.075492 C384.349162,372.212565 384.507309,372.369221 384.650631,372.506295 C384.853258,372.692323 385.041058,372.878352 385.228859,373.079067 C385.377123,373.201454 385.530328,373.35811 385.663766,373.504975 C385.846624,373.691003 386.039367,373.877032 386.227167,374.05327 C386.360604,374.20503 386.503926,374.332313 386.637363,374.469386 C386.815279,374.655415 386.993196,374.851235 387.16617,375.037263 C387.304549,375.179233 387.437987,375.311411 387.556597,375.433798 C387.744398,375.629618 387.91243,375.830333 388.095289,376.031048 C388.204015,376.14854 388.33251,376.270927 388.431353,376.39821 C388.619153,376.623402 388.82178,376.824117 388.999697,377.034623 C389.088655,377.14722 389.182555,377.240234 389.276455,377.347935 C389.533445,377.651455 389.795378,377.964767 390.052368,378.278078 C390.299474,378.562016 390.541638,378.875328 390.788744,379.188639 C390.848049,379.291444 390.927123,379.389354 391.006197,379.497055 C391.184114,379.717352 391.342261,379.927858 391.510293,380.148155 C391.599252,380.285229 391.68821,380.412512 391.796936,380.534899 C391.930374,380.74051 392.078637,380.94612 392.221959,381.146835 C392.315859,381.303491 392.409759,381.460147 392.523428,381.611907 C392.661807,381.802831 392.790303,382.003546 392.928682,382.209157 C393.032466,382.370708 393.116482,382.537155 393.235093,382.703601 C393.368531,382.909212 393.492084,383.105031 393.620579,383.320433 C393.719421,383.491775 393.823206,383.653326 393.936874,383.829564 C394.065369,384.04007 394.18398,384.245681 394.307533,384.456187 C394.41626,384.647111 394.524987,384.818453 394.623829,384.999586 C394.74244,385.219883 394.875877,385.430389 394.989546,385.665373 C395.103215,385.841611 395.206999,386.03743 395.300899,386.238145 C395.41951,386.443756 395.548005,386.659157 395.656732,386.894141 C395.755574,387.089961 395.879127,387.295571 395.982912,387.496286 C396.086696,387.716583 396.215192,387.93688 396.323918,388.181655 C396.427703,388.377475 396.536429,388.597772 396.640214,388.798487 C396.763767,389.023679 396.867551,389.278245 396.98122,389.508333 C397.005931,389.557288 397.030641,389.620929 397.055352,389.68457 C386.370489,391.42247 377.010114,400.209875 371.297023,406.857951 C352.329167,374.621147 329.644836,352.518008 313.395146,339.344243 L313.395146,339.344243 Z M305.888066,404.224177 C304.608056,386.115758 298.450175,359.004532 277.134812,329.137146 C282.170832,331.873725 293.013843,338.237862 306.08575,348.885554 C315.030987,356.170044 326.042031,366.337977 337.226048,379.575383 C332.254275,387.315153 331.048398,396.827091 330.821061,402.36389 C326.462111,404.606025 319.073642,410.025333 305.645902,423.590737 C306.174709,418.225279 306.406988,411.709382 305.888066,404.224177 L305.888066,404.224177 Z M373.891636,231.472113 C374.034957,201.697741 376.580149,176.485966 378.324717,162.626832 C379.955617,164.751475 381.813854,167.228593 383.810471,169.886845 C389.390124,177.293722 395.829706,185.895098 400.564257,192.278818 C400.633447,192.362041 400.717463,192.484428 400.82619,192.665561 C400.836074,192.680248 400.845958,192.69983 400.860784,192.719412 C400.905263,192.80753 400.979395,192.910336 401.048585,193.022932 C401.078238,193.066991 401.093064,193.10126 401.127659,193.140424 C401.196849,193.262811 401.261096,193.380303 401.345112,193.507586 C401.389591,193.561436 401.414302,193.615286 401.443955,193.664241 C401.537855,193.786629 401.611987,193.928598 401.686118,194.065671 C401.750366,194.148895 401.799787,194.217432 401.844266,194.300655 C401.928282,194.437729 402.012298,194.574802 402.106199,194.726563 C402.165504,194.834263 402.224809,194.937069 402.313768,195.034979 C402.382957,195.181843 402.4818,195.328708 402.570758,195.480468 C402.649832,195.617542 402.719021,195.725243 402.793153,195.872107 C402.887054,196.014077 402.99578,196.175628 403.08968,196.337179 C403.173696,196.484044 403.257713,196.630908 403.351613,196.79246 C403.435629,196.919742 403.519645,197.051921 403.598719,197.188994 C403.845825,197.605111 404.112699,198.050601 404.374632,198.515672 C404.453706,198.64785 404.522895,198.760447 404.597027,198.882834 C404.725522,199.098236 404.863902,199.34301 404.987455,199.577994 C405.101123,199.74444 405.204908,199.905991 405.30375,200.082229 C405.432245,200.317213 405.570625,200.552196 405.713946,200.806762 C405.822673,200.987895 405.936342,201.183714 406.054952,201.379534 C406.168621,201.609622 406.331711,201.869083 406.460206,202.104067 C406.593643,202.329259 406.712254,202.529974 406.830865,202.760062 C406.979129,203.009732 407.12245,203.269193 407.270714,203.53355 C407.404151,203.763638 407.537588,203.98883 407.661141,204.233605 C407.819289,204.48817 407.967553,204.757422 408.110874,205.036465 C408.26408,205.286135 408.397517,205.526014 408.535897,205.790371 C408.694044,206.069414 408.857134,206.343561 409.015282,206.632395 C409.143777,206.886961 409.296983,207.161108 409.440305,207.440151 C409.608337,207.719194 409.776369,208.012924 409.934517,208.301757 C410.077838,208.600382 410.231044,208.864739 410.389192,209.163364 C410.552282,209.466884 410.725256,209.765509 410.893288,210.073925 C411.051436,210.377445 411.214526,210.671175 411.362789,210.9698 C411.545648,211.278216 411.708738,211.601318 411.87677,211.92442 C412.044802,212.237732 412.207892,212.546148 412.375924,212.854563 C412.543956,213.187457 412.731756,213.510559 412.904731,213.848348 C413.072763,214.17145 413.240795,214.499448 413.418711,214.842133 C413.591685,215.179921 413.774544,215.512815 413.937634,215.855499 C414.11555,216.193288 414.298408,216.535972 414.486209,216.898238 C414.654241,217.240923 414.832157,217.578712 415.015016,217.9165 C415.202816,218.293453 415.385675,218.65572 415.568533,219.017986 C415.751392,219.370461 415.929308,219.727832 416.107224,220.080307 C416.299967,220.452364 416.497652,220.844004 416.675568,221.225852 C416.878195,221.583223 417.046227,221.945489 417.234028,222.322442 C417.416886,222.709186 417.614571,223.110616 417.817198,223.502255 C418.000056,223.869417 418.177973,224.25616 418.365773,224.628218 C418.548632,225.034543 418.756201,225.45066 418.968712,225.856986 C419.136744,226.229043 419.339371,226.620682 419.517287,227.007426 C419.724856,227.423543 419.917599,227.854346 420.13011,228.29494 C420.312968,228.671893 420.500769,229.053741 420.68857,229.44538 C420.901081,229.89087 421.118534,230.355941 421.321161,230.801431 C421.508961,231.168593 421.672051,231.535755 421.845026,231.902916 C418.400368,238.095712 412.415461,250.848464 407.769868,271.404628 C402.847517,293.277679 398.735673,327.781095 403.326902,376.099585 C403.173696,375.879288 403.045201,375.654095 402.896938,375.428903 C402.793153,375.30162 402.704195,375.14986 402.605353,375.00789 C402.368131,374.65052 402.130909,374.307835 401.888745,373.960255 C401.770134,373.788913 401.651524,373.617571 401.537855,373.480497 C401.295691,373.137813 401.058469,372.800024 400.816305,372.476922 C400.702637,372.334953 400.579084,372.188088 400.490125,372.060805 C400.124408,371.576152 399.773518,371.135558 399.412743,370.694963 C398.854284,370.024281 398.266171,369.343808 397.663233,368.66823 C397.223384,368.163995 396.768709,367.654864 396.30415,367.155524 C377.60811,323.18423 373.698893,269.82828 373.891636,231.472113 L373.891636,231.472113 Z M460.966847,214.078436 L460.976731,214.078436 C461.466001,214.107809 461.960213,214.132286 462.464309,214.161659 C462.577978,214.161659 462.686705,214.17145 462.785547,214.17145 L463.996367,214.225301 L464.134746,214.249778 C464.441157,214.254674 464.7278,214.274256 465.02927,214.284047 C465.261549,214.288942 465.493829,214.308524 465.726109,214.318315 L466.961639,214.362374 L466.996233,214.362374 L467.312529,214.372165 C467.767204,214.386852 468.221879,214.401538 468.66667,214.426016 L469.615557,214.450493 L470.386528,214.46518 C470.796724,214.484762 471.20692,214.494553 471.627,214.499448 L473.055272,214.523926 L474.547793,214.548403 C474.957989,214.553299 475.348416,214.553299 475.733901,214.56309 L475.763554,214.56309 L477.473528,214.572881 L478.101177,214.572881 L478.605273,214.572881 C483.152023,231.217548 485.450109,248.239168 485.450109,265.23631 C485.450109,265.515353 485.430341,265.789501 485.430341,266.073439 C482.652869,256.492964 479.050064,247.690873 475.541159,240.293787 C470.337106,229.327889 464.801932,220.232067 460.759278,214.06375 L460.966847,214.078436 Z M49.3228512,422.768294 C40.9607842,418.509218 34.3334014,412.854926 30.2660367,408.914057 C51.5319788,407.646125 75.6594083,413.608832 97.730916,421.740241 C82.2126594,430.885017 65.9530848,431.247284 49.3228512,422.768294 L49.3228512,422.768294 Z M23.0703101,318.979003 C14.2980472,312.75194 10.2801037,303.225315 8.51576686,297.267504 C26.5149677,303.886207 40.911363,314.622017 51.6308212,324.975979 C40.1305081,326.292866 30.5427954,324.280819 23.0703101,318.979003 L23.0703101,318.979003 Z M126.410038,216.496808 C130.768988,233.141475 135.854429,274.816785 102.485235,332.196827 C100.622056,298.011618 108.618406,259.302976 126.410038,216.496808 L126.410038,216.496808 Z M150.31013,411.988424 C139.472061,397.223626 131.866138,380.476153 134.905542,364.374885 C138.103094,366.739407 142.788223,370.734127 146.682614,376.261136 C154.323131,387.163393 155.533951,399.167135 150.31013,411.988424 L150.31013,411.988424 Z M266.099058,114.435625 C255.157204,114.543326 246.622163,113.113843 240.94861,111.699046 C280.075373,95.641838 315.569678,88.3818258 347.070751,89.9973376 C312.293053,109.701686 284.118027,114.23491 266.099058,114.435625 L266.099058,114.435625 Z M350.115097,45.3161972 C340.972175,35.0503539 333.895059,23.061298 334.567188,10.9547504 C336.894926,12.6534855 339.889851,15.1893495 342.652496,18.6308793 C348.849914,26.3608585 351.350627,35.3196059 350.115097,45.3161972 L350.115097,45.3161972 Z M497.523708,265.23631 C497.523708,248.185317 495.35906,231.129429 491.054473,214.426016 L491.222505,214.426016 L488.973841,206.867379 L488.963956,206.83311 L488.919477,206.700932 C488.909593,206.676455 488.909593,206.651977 488.909593,206.637291 L487.664179,202.515288 L487.6197,202.520183 C476.618541,168.222378 456.63755,136.401691 430.167556,110.558397 C427.592711,107.479134 413.428595,91.2407922 387.976678,75.7661472 C387.635671,75.5556411 387.279839,75.354926 386.943775,75.1444199 L386.968485,75.1101514 C386.642305,74.9290183 370.229525,65.3240662 355.85784,51.3033819 C359.801652,34.0418829 353.777208,21.7982615 347.910911,14.4941899 C341.407082,6.39704887 333.796217,2.56877542 333.465095,2.41701522 L329.65472,0.522460452 L328.700891,4.64446333 C323.902093,25.4013424 339.202896,45.3308836 354.859532,59.5963425 C332.575513,51.1369352 304.598172,44.9979903 271.5601,46.4666374 C262.580269,46.6575615 253.595494,47.3967806 244.729331,48.6647126 L238.82844,55.6554728 L246.49861,60.5020082 C252.355022,59.6697749 258.280624,59.092107 264.21611,58.7445272 C264.655959,58.8081686 265.110634,58.8277505 265.565309,58.7885866 C267.729958,58.6270354 269.87978,58.5144392 271.995007,58.4263203 C273.532006,58.3920519 275.069006,58.3773654 276.610947,58.3773654 C314.620791,58.3773654 351.617501,69.734903 383.672091,89.4735201 C340.858506,76.6864993 289.2776,83.2562474 230.08583,109.070168 L223.364547,112.002567 L229.996872,115.120994 C230.530621,115.380455 243.266464,121.235462 265.674036,121.083701 C285.996033,120.941732 318.53495,115.605648 358.477164,90.9911221 C370.827522,92.5332016 382.505751,95.5096597 393.492084,99.9498695 C398.790036,102.094094 403.702503,104.502676 408.278906,107.087494 C412.81083,110.822754 417.204375,114.748937 421.420003,118.856253 C421.563325,118.998222 421.711588,119.130401 421.845026,119.257683 C445.478243,142.276279 464.045788,170.704392 474.928336,202.559347 L471.888932,202.529974 C471.493562,202.520183 471.108077,202.515288 470.71765,202.515288 L469.442583,202.466333 L469.052155,202.456542 C468.627133,202.441855 468.192226,202.422274 467.75732,202.407587 L466.240089,202.353737 C465.726109,202.329259 465.226954,202.319468 464.717916,202.2852 L463.428023,202.231349 C462.849795,202.182395 462.271567,202.153022 461.688397,202.128544 L460.630783,202.060007 C460.047613,202.015948 459.449616,201.981679 458.861504,201.93762 L457.853311,201.854397 C457.245431,201.815233 456.63755,201.771173 456.029669,201.717323 L455.095609,201.6341 C454.482786,201.575354 453.860079,201.521503 453.247256,201.457862 L452.382385,201.374639 C451.744851,201.301206 451.132028,201.237565 450.494495,201.169028 L449.688929,201.066223 C449.046454,200.987895 448.413862,200.909567 447.796097,200.836135 L447.054779,200.728434 C446.397477,200.645211 445.769828,200.552196 445.122411,200.468973 L444.460166,200.361272 C443.797922,200.263362 443.165331,200.155661 442.503087,200.057752 L441.919917,199.954946 C441.257673,199.832559 440.615197,199.710172 439.957895,199.587785 L439.443915,199.49477 C438.781671,199.367488 438.114484,199.235309 437.447298,199.09334 L437.042044,199.000326 C436.374858,198.863252 435.697788,198.721283 435.035544,198.564627 L434.72419,198.481404 C434.027351,198.324748 433.345339,198.153406 432.688037,197.972273 L432.613905,197.962482 L432.584252,197.952691 L432.48541,197.928213 C431.803397,197.751976 431.136211,197.561052 430.449256,197.360337 L430.360298,197.340755 L430.355356,197.340755 C429.796897,197.174308 429.253263,197.017652 428.719514,196.836519 C428.679977,196.826728 428.625614,196.812042 428.591019,196.79246 C428.096807,196.640699 427.632248,196.484044 427.167689,196.337179 C427.083673,196.302911 426.999657,196.268642 426.935409,196.239269 C426.510387,196.092405 426.080422,195.940644 425.670226,195.803571 C425.556558,195.754616 425.4676,195.720347 425.373699,195.686079 C424.97833,195.54411 424.612613,195.392349 424.23207,195.255276 C424.118401,195.201425 424.014616,195.157366 423.891063,195.113306 C423.550057,194.971337 423.199166,194.819577 422.853218,194.687399 C422.734607,194.623757 422.620938,194.569907 422.492443,194.511161 C422.171206,194.383878 421.864794,194.241909 421.553441,194.085253 C421.420003,194.031403 421.311277,193.967762 421.163013,193.899225 C420.881312,193.767047 420.594669,193.629973 420.303084,193.478213 C420.169647,193.419467 420.03621,193.346034 419.902772,193.277498 C419.645782,193.135528 419.373966,192.998455 419.116975,192.866276 C418.98848,192.773262 418.845159,192.719412 418.706779,192.631293 C418.464616,192.499115 418.24222,192.362041 418.000056,192.220072 C417.851793,192.146639 417.72824,192.053625 417.594802,191.980193 C417.362523,191.833328 417.14507,191.70115 416.932558,191.554285 C416.799121,191.475957 416.665684,191.378047 416.522362,191.280137 C416.32962,191.143064 416.131935,191.020677 415.929308,190.883603 C415.800813,190.785693 415.662434,190.692679 415.543823,190.584978 C415.346138,190.462591 415.168222,190.320621 415.000189,190.188443 C414.86181,190.090533 414.728373,189.982833 414.609762,189.875132 C414.44173,189.742954 414.273698,189.600984 414.11555,189.468806 C413.982113,189.366001 413.868444,189.248509 413.744891,189.140808 C413.591685,189.003734 413.443422,188.876452 413.3001,188.739378 C413.181489,188.631677 413.072763,188.494603 412.939325,188.391798 C412.796004,188.25962 412.672451,188.122546 412.539014,187.975682 C412.420403,187.867981 412.311676,187.750489 412.207892,187.618311 L412.000323,187.388223 L411.891596,187.16303 L411.506111,186.81545 C409.479842,184.06908 404.770001,177.72942 399.610428,170.851256 C399.556065,170.782719 399.516528,170.714183 399.447338,170.64075 C399.294132,170.43514 399.145869,170.224633 398.992663,170.023918 C398.888879,169.911322 398.79992,169.784039 398.70602,169.671443 C398.626946,169.553951 398.533046,169.441355 398.444088,169.309177 C398.28594,169.108462 398.142618,168.878374 397.95976,168.667868 C397.920223,168.599331 397.875744,168.535689 397.836207,168.472048 C397.663233,168.266437 397.505085,168.04614 397.346937,167.845425 C397.302458,167.771993 397.248095,167.703456 397.193731,167.64471 C397.020757,167.39504 396.828014,167.155161 396.650098,166.915282 C396.640214,166.900596 396.625388,166.866327 396.600677,166.856536 C390.343953,158.534203 384.106998,150.304883 381.764433,147.421439 C381.754549,147.421439 381.749607,147.396962 381.739722,147.396962 C381.665591,147.318634 381.591459,147.235411 381.532153,147.166874 C381.527211,147.147292 381.527211,147.147292 381.517327,147.132605 C381.38389,146.97595 381.265279,146.833981 381.156552,146.716489 L378.833756,144.072924 L375.364388,144.797457 C375.186471,144.831725 372.003746,145.502407 366.681083,146.57452 C366.65143,146.57452 366.631662,146.57452 366.606951,146.579415 C366.201697,146.657743 365.761849,146.750757 365.336826,146.838876 C365.208331,146.863354 365.084778,146.87804 364.961225,146.907413 C364.625161,146.97595 364.279213,147.044487 363.933264,147.113024 C363.696042,147.166874 363.483531,147.201142 363.261136,147.245202 C362.994261,147.303948 362.702676,147.352903 362.43086,147.396962 C362.099738,147.47529 361.763674,147.538931 361.437494,147.597677 C361.294172,147.636841 361.111314,147.671109 360.96305,147.700482 C332.911577,153.203014 271.110368,164.629088 241.373632,164.629088 C240.632314,164.629088 239.930533,164.619297 239.238636,164.604611 C238.961877,164.59482 238.685119,164.59482 238.40836,164.585029 C238.200791,164.575238 238.003106,164.570342 237.790595,164.570342 C237.306267,164.540969 236.831824,164.511596 236.362322,164.506701 L231.874877,164.242344 L230.323052,168.403511 C230.31811,168.432884 230.184672,168.780464 229.952393,169.411982 C228.281956,173.783655 221.224609,191.637508 213.139301,204.346201 C207.539879,213.153188 174.640186,253.854295 158.029721,274.150998 L155.430166,277.313485 L157.456435,280.862715 C157.46632,280.882297 157.530567,280.994894 157.644236,281.200504 C157.733194,281.362055 157.866631,281.582353 158.014895,281.841814 C160.604566,286.423992 171.679857,305.883567 175.18382,312.472897 C175.322199,312.717671 175.44081,312.95755 175.564363,313.163161 C175.796642,314.073722 176.147533,316.60469 176.409465,318.484559 C177.704301,327.737036 178.796509,334.047323 182.171977,337.341988 C197.364054,352.199801 226.44843,352.199801 236.00649,352.199801 L242.04576,352.199801 L242.04576,331.560414 C243.004531,331.340116 243.968245,331.134506 244.931958,330.953373 C245.23837,330.894627 245.549723,330.835881 245.866019,330.762449 C246.533205,330.649852 247.195449,330.532361 247.862635,330.395287 C248.22341,330.351227 248.579243,330.287586 248.935075,330.233736 C249.592377,330.126035 250.244737,330.02323 250.887213,329.930215 C251.247988,329.876365 251.593936,329.82741 251.954711,329.77356 C252.67626,329.67565 253.392868,329.587531 254.114417,329.499412 C254.396118,329.465144 254.677819,329.42598 254.964462,329.391711 C255.967712,329.288906 256.985789,329.17631 257.979155,329.093086 C258.147187,329.0784 258.305335,329.068609 258.488193,329.053922 C259.328354,328.956013 260.18334,328.907058 261.043269,328.858103 C261.379333,328.838521 261.735166,328.809148 262.081114,328.78467 C262.496253,328.760193 262.941043,328.740611 263.380892,328.721029 C264.082673,331.496772 264.700438,334.189292 265.249013,336.779006 C265.258898,336.823066 265.26384,336.857334 265.273724,336.896498 C265.525772,338.144848 265.762994,339.368721 265.995273,340.558325 C266.005158,340.66113 266.019984,340.724771 266.019984,340.827577 C266.247322,341.982912 266.435122,343.133353 266.613038,344.264211 C266.637749,344.386598 266.657517,344.484508 266.667402,344.597104 C266.835434,345.69859 266.993582,346.790284 267.141845,347.867292 C267.161614,347.989679 267.166556,348.107171 267.181382,348.239349 C267.329646,349.29188 267.43343,350.329724 267.542157,351.347986 C267.552041,351.485059 267.576752,351.622133 267.586636,351.759207 C267.685478,352.762782 267.774437,353.751671 267.858453,354.716083 C267.868337,354.862948 267.868337,355.014708 267.883163,355.141991 C267.942469,356.106402 268.011658,357.056127 268.046253,357.996061 C268.056137,358.118449 268.06108,358.28 268.06108,358.421969 C268.110501,359.337426 268.130269,360.257778 268.15498,361.143862 C268.15498,361.290726 268.164864,361.432696 268.164864,361.574665 C268.17969,362.47054 268.17969,363.341937 268.164864,364.208439 C268.164864,364.335721 268.164864,364.477691 268.15498,364.61966 C268.130269,365.46658 268.120385,366.333081 268.090732,367.155524 C268.080848,367.292598 268.06108,367.41988 268.056137,367.547163 C268.031427,368.374501 267.962237,369.192048 267.907874,370.01449 C267.89799,370.127087 267.883163,370.244578 267.883163,370.352279 C267.833742,371.169826 267.754668,371.972686 267.670652,372.775547 C267.650884,372.85877 267.631115,372.971366 267.626173,373.064381 C267.537215,373.877032 267.443315,374.655415 267.33953,375.428903 C267.329646,375.517021 267.319762,375.600245 267.295051,375.673677 C267.181382,376.461851 267.077598,377.240234 266.934276,378.00393 C266.924392,378.072467 266.909566,378.121422 266.909566,378.185064 C266.766244,378.958551 266.622923,379.74183 266.459833,380.495735 C266.459833,380.520213 266.454891,380.534899 266.454891,380.569167 C266.296743,381.327968 266.128711,382.081874 265.950794,382.806407 C265.94091,382.835779 265.94091,382.88963 265.931026,382.923898 C265.762994,383.643535 265.585077,384.368068 265.387393,385.063228 C265.377508,385.121973 265.35774,385.180719 265.333029,385.23457 C265.155113,385.924834 264.957428,386.595516 264.764686,387.261303 C264.744917,387.344526 264.715264,387.417958 264.700438,387.4816 C264.512637,388.1327 264.300126,388.778905 264.092557,389.395737 C264.062905,389.488751 264.038194,389.567079 264.013483,389.650302 C263.79603,390.272029 263.593403,390.874175 263.380892,391.47632 C263.346297,391.57423 263.30676,391.662349 263.286992,391.750467 C263.054712,392.342822 262.852085,392.935176 262.619806,393.503053 C262.585211,393.591172 262.545674,393.693977 262.516021,393.782096 C262.283741,394.359764 262.061346,394.91785 261.819182,395.466145 C261.784587,395.564054 261.74505,395.652173 261.705513,395.745188 C261.478176,396.298378 261.23107,396.846673 260.99879,397.385177 C260.949369,397.473296 260.914774,397.56631 260.870295,397.659324 C260.638015,398.197828 260.405736,398.71675 260.138861,399.250359 C260.104266,399.343373 260.069672,399.421701 260.035077,399.504924 C259.778087,400.033637 259.530981,400.547664 259.27399,401.071481 C259.234453,401.140018 259.194916,401.228137 259.155379,401.296674 C258.908273,401.820491 258.641399,402.324727 258.389351,402.843649 C258.344872,402.912185 258.305335,402.985618 258.275682,403.049259 C258.01375,403.568181 257.751817,404.072417 257.484943,404.566861 C257.450348,404.630503 257.43058,404.694144 257.381158,404.762681 C257.109342,405.262021 256.842467,405.761361 256.575593,406.25091 C256.555824,406.309656 256.52123,406.368402 256.496519,406.407565 C256.224702,406.921592 255.943001,407.416037 255.671185,407.905586 C255.641532,407.95454 255.626706,407.9986 255.601995,408.027973 C255.320294,408.537104 255.043536,409.046235 254.756893,409.535784 C254.751951,409.570052 254.732182,409.584739 254.722298,409.614112 C254.445539,410.118347 254.149012,410.632374 253.872253,411.131714 C253.244604,412.272363 252.616955,413.364057 252.0239,414.43617 C251.944826,414.578139 251.865753,414.734795 251.771852,414.881659 C251.757026,414.915928 251.747142,414.955092 251.727373,414.984465 C251.648299,415.111747 251.564283,415.23903 251.490151,415.39079 C251.460499,415.429954 251.425904,415.493596 251.396251,415.547446 C251.307293,415.660042 251.228219,415.802011 251.144203,415.939085 C251.124435,415.997831 251.075013,416.066368 251.030534,416.1398 C250.941576,416.271979 250.847676,416.38947 250.76366,416.546126 C250.738949,416.614663 250.679644,416.6832 250.645049,416.756632 C250.551149,416.893706 250.447364,417.060153 250.34358,417.211913 C250.318869,417.28045 250.249679,417.363673 250.220027,417.43221 C250.101416,417.593761 250.002573,417.755312 249.893847,417.93155 C249.824657,418.004982 249.780178,418.097996 249.71593,418.18122 C249.602262,418.352562 249.493535,418.523904 249.369982,418.705037 C249.305734,418.793156 249.251371,418.900857 249.192066,418.974289 C249.058628,419.1799 248.935075,419.365928 248.801638,419.561748 C248.737391,419.654762 248.663259,419.747777 248.599011,419.855477 C248.470516,420.056193 248.322253,420.256908 248.183873,420.472309 C248.109741,420.570219 248.03561,420.687711 247.96642,420.770934 C247.80333,421.005918 247.660008,421.226215 247.496918,421.451407 C247.427729,421.554213 247.348655,421.681495 247.269581,421.789196 C247.101549,422.029075 246.933517,422.264059 246.755601,422.508833 C246.666642,422.626325 246.587568,422.748712 246.508495,422.866204 C246.330578,423.115874 246.14772,423.365544 245.969803,423.629901 C245.885787,423.757183 245.772119,423.899153 245.688103,424.02154 C245.505244,424.285896 245.312501,424.564939 245.104932,424.819505 C245.00609,424.966369 244.907248,425.108339 244.808405,425.230726 C244.61072,425.534246 244.398209,425.827976 244.16593,426.126601 C244.067087,426.258779 243.978129,426.386062 243.879287,426.532926 C243.656891,426.841342 243.424612,427.154654 243.182448,427.47286 C243.068779,427.639307 242.964995,427.76659 242.866152,427.928141 C242.609162,428.246348 242.37194,428.584137 242.11495,428.921926 C242.001281,429.078581 241.897497,429.235237 241.778886,429.396788 C241.516953,429.734577 241.255021,430.096843 240.983204,430.45911 C240.864594,430.630452 240.745983,430.772421 240.632314,430.938868 C240.335787,431.31582 240.06397,431.697669 239.767443,432.084412 C239.638948,432.250859 239.540105,432.417306 239.401726,432.569066 C239.115083,432.970496 238.80373,433.386613 238.47755,433.80273 C238.353997,433.974072 238.225501,434.140518 238.097006,434.326547 C237.770826,434.737768 237.464415,435.173467 237.123409,435.599374 C236.985029,435.790299 236.841708,435.956745 236.698386,436.152565 C236.367264,436.598054 236.021316,437.038649 235.675368,437.513511 C235.51722,437.694644 235.398609,437.870882 235.255287,438.071597 C234.889571,438.54646 234.509027,439.021322 234.138368,439.515767 C233.995047,439.706691 233.856667,439.89272 233.688635,440.093435 C233.317976,440.578088 232.937433,441.087219 232.537121,441.59635 C232.383916,441.806856 232.210942,442.022258 232.052794,442.227868 C231.662366,442.74679 231.22746,443.295085 230.817264,443.838485 C230.659116,444.029409 230.50591,444.225228 230.34282,444.425944 C229.898029,445.008507 229.428528,445.615548 228.968911,446.217693 C228.820647,446.398826 228.697094,446.579959 228.538946,446.765988 C228.074387,447.363238 227.590059,448.009443 227.095847,448.621379 C226.927815,448.817198 226.784494,449.008123 226.621404,449.213733 C226.151902,449.850147 225.63298,450.491456 225.123942,451.137661 C224.960852,451.348167 224.79282,451.553778 224.634672,451.769179 C224.100923,452.464339 223.552347,453.154603 222.99883,453.844867 C222.840682,454.040687 222.692419,454.226715 222.534271,454.42743 C221.931332,455.205813 221.318509,455.993987 220.671091,456.796848 C220.572249,456.92413 220.45858,457.056309 220.354796,457.212964 C219.717262,458.025616 219.05996,458.848058 218.38289,459.675396 C218.274163,459.832052 218.160495,459.983812 218.031999,460.120886 C217.256087,461.11467 216.455463,462.118246 215.640013,463.146299 C208.963209,461.129357 202.4149,458.784417 196.059334,456.155538 C191.102388,452.567144 170.938539,437.542884 154.965607,417.995191 C164.765831,397.71807 158.953898,382.101456 152.19802,372.462235 C144.765071,361.883081 134.841295,356.331595 134.421214,356.096611 L130.808525,354.109042 L129.582879,358.010748 C125.920768,369.647328 127.106877,382.449036 133.15109,396.112349 C137.875756,406.769832 145.516274,417.960923 155.934262,429.396788 C160.253675,434.155205 164.691699,438.54646 168.907327,442.477538 C156.566854,435.075557 145.106078,426.449703 134.658436,416.815378 C126.948729,407.641229 119.387286,396.200468 113.565468,382.209157 C108.514622,370.102609 105.163864,357.188306 103.478601,343.485828 C130.339023,300.674765 136.190493,265.774814 136.358525,243.984987 C136.511731,219.908965 130.101802,206.235861 129.829985,205.663088 L126.681855,199.059072 L123.721525,205.765893 C92.7245485,276.300118 87.2289111,336.5685 107.417471,384.896781 C107.872146,385.978684 108.34659,387.055692 108.821033,388.122909 C82.8551349,353.320868 67.7816691,310.519596 67.7816691,265.23631 C67.7816691,252.791974 68.9035304,240.342742 71.1274843,228.138284 L66.4522389,221.602805 C66.4522389,221.602805 59.1724962,226.307371 59.1379014,226.571727 C56.8447577,239.285316 55.6784174,252.273052 55.6784174,265.23631 C55.6784174,287.3933 58.9698693,308.992203 65.3550882,329.621799 C64.2134585,328.314703 63.0322919,326.992921 61.7572249,325.646661 C50.2519697,313.373667 31.0370074,297.052102 4.91790355,289.033289 L0.000494211994,287.515687 L0.603432844,292.602101 C0.702275243,293.429439 3.21781429,313.006505 19.0919035,324.344461 C29.0898122,331.457608 41.9492082,333.640997 57.3834488,330.845672 C65.8591845,339.970866 71.2708058,348.077798 73.5688916,351.768998 C80.7300234,368.178681 89.9668455,383.780609 101.200284,398.290842 C109.241113,408.688864 118.156698,418.288921 127.872905,427.042057 C125.658836,426.0189 123.405229,425.000638 121.112085,423.982376 C81.6047786,406.480998 48.492575,399.421701 22.7490723,402.96114 L16.887718,403.773792 L20.5844237,408.331493 C20.9847355,408.830833 30.6465799,420.67792 46.0412835,428.584137 C60.235052,435.85394 81.9210743,440.959936 105.485102,424.697117 C140.416006,438.570937 168.5169,456.503118 169.001228,456.81643 L169.208797,456.512909 C181.45537,463.268686 194.29994,468.859336 207.618953,473.191845 L207.505284,473.33871 L216.193531,475.786455 L220.092863,476.88794 L220.10769,476.843881 C230.92599,479.663683 241.991397,481.67573 253.170472,482.855543 L252.918424,483.139481 L264.898123,483.766104 C264.903065,483.771 264.922833,483.771 264.957428,483.771 L267.967179,483.92276 L267.996832,483.912969 C270.887972,484.010879 273.779112,484.079415 276.610947,484.079415 C303.011752,484.079415 328.863981,479.497236 353.406549,470.484639 C373.87681,462.96027 392.963277,452.532876 410.334828,439.432543 L410.374365,439.706691 L418.494268,432.970496 L421.128418,430.772421 L421.128418,430.723466 C436.676328,417.407732 450.173257,402.143593 461.391869,385.205197 L468.928602,372.986053 L470.13448,370.885888 L470.13448,370.851619 C488.059549,338.66377 497.523708,302.202158 497.523708,265.23631 L497.523708,265.23631 Z" id="Fill-3" fill-opacity="0.502786276" fill="#BEBAB9" mask="url(#mask-2)"></path>
                    </g>
                </g>
            </g>
        </g>
    </g>
</svg>